127.0.0.1 - - [13/Jan/2022:16:03:41 +0530] "GET / HTTP/1.1" 404 751
0:0:0:0:0:0:0:1 - - [13/Jan/2022:16:04:01 +0530] "GET /BooksManagementSystems/ HTTP/1.1" 200 5941
0:0:0:0:0:0:0:1 - - [13/Jan/2022:16:04:01 +0530] "GET /BooksManagementSystems/css/style.css HTTP/1.1" 404 795
0:0:0:0:0:0:0:1 - - [13/Jan/2022:16:04:01 +0530] "GET /BooksManagementSystems/image/clarissa.jpg HTTP/1.1" 404 800
0:0:0:0:0:0:0:1 - - [13/Jan/2022:16:04:01 +0530] "GET /BooksManagementSystems/image/frankenstein.jpg HTTP/1.1" 404 804
0:0:0:0:0:0:0:1 - - [13/Jan/2022:16:04:01 +0530] "GET /BooksManagementSystems/image/aliceinwonderland.jpg HTTP/1.1" 404 809
0:0:0:0:0:0:0:1 - - [13/Jan/2022:16:04:01 +0530] "GET /BooksManagementSystems/image/richdadpoordad.jpg HTTP/1.1" 404 806
0:0:0:0:0:0:0:1 - - [13/Jan/2022:16:04:01 +0530] "GET /BooksManagementSystems/image/sybil.jpg HTTP/1.1" 404 797
0:0:0:0:0:0:0:1 - - [13/Jan/2022:16:04:01 +0530] "GET /BooksManagementSystems/image/littlewomen.jpg HTTP/1.1" 404 803
0:0:0:0:0:0:0:1 - - [13/Jan/2022:16:04:02 +0530] "GET /favicon.ico HTTP/1.1" 404 762
127.0.0.1 - - [13/Jan/2022:16:08:42 +0530] "GET / HTTP/1.1" 404 751
0:0:0:0:0:0:0:1 - - [13/Jan/2022:16:08:44 +0530] "GET /BooksManagement/ HTTP/1.1" 404 771
0:0:0:0:0:0:0:1 - - [13/Jan/2022:16:08:44 +0530] "GET /favicon.ico HTTP/1.1" 404 762
0:0:0:0:0:0:0:1 - - [13/Jan/2022:16:09:06 +0530] "GET /BooksManagementSystems/ HTTP/1.1" 200 5941
0:0:0:0:0:0:0:1 - - [13/Jan/2022:16:09:06 +0530] "GET /BooksManagementSystems/image/sybil.jpg HTTP/1.1" 404 797
0:0:0:0:0:0:0:1 - - [13/Jan/2022:16:09:06 +0530] "GET /BooksManagementSystems/image/richdadpoordad.jpg HTTP/1.1" 404 806
0:0:0:0:0:0:0:1 - - [13/Jan/2022:16:09:06 +0530] "GET /BooksManagementSystems/css/style.css HTTP/1.1" 404 795
0:0:0:0:0:0:0:1 - - [13/Jan/2022:16:09:07 +0530] "GET /BooksManagementSystems/image/frankenstein.jpg HTTP/1.1" 404 804
0:0:0:0:0:0:0:1 - - [13/Jan/2022:16:09:07 +0530] "GET /BooksManagementSystems/image/clarissa.jpg HTTP/1.1" 404 800
0:0:0:0:0:0:0:1 - - [13/Jan/2022:16:09:07 +0530] "GET /BooksManagementSystems/image/aliceinwonderland.jpg HTTP/1.1" 404 809
0:0:0:0:0:0:0:1 - - [13/Jan/2022:16:09:07 +0530] "GET /BooksManagementSystems/image/littlewomen.jpg HTTP/1.1" 404 803
0:0:0:0:0:0:0:1 - - [13/Jan/2022:16:09:07 +0530] "GET /favicon.ico HTTP/1.1" 404 762
127.0.0.1 - - [13/Jan/2022:16:29:09 +0530] "GET / HTTP/1.1" 404 751
0:0:0:0:0:0:0:1 - - [13/Jan/2022:16:29:11 +0530] "GET /BooksManagement/ HTTP/1.1" 404 771
0:0:0:0:0:0:0:1 - - [13/Jan/2022:16:29:11 +0530] "GET /favicon.ico HTTP/1.1" 404 762
0:0:0:0:0:0:0:1 - - [13/Jan/2022:16:29:58 +0530] "GET /BooksManagement/ HTTP/1.1" 404 771
0:0:0:0:0:0:0:1 - - [13/Jan/2022:16:29:58 +0530] "GET /favicon.ico HTTP/1.1" 404 762
127.0.0.1 - - [13/Jan/2022:16:30:59 +0530] "GET / HTTP/1.1" 404 751
0:0:0:0:0:0:0:1 - - [13/Jan/2022:16:31:04 +0530] "GET /BooksManagement/ HTTP/1.1" 200 5941
0:0:0:0:0:0:0:1 - - [13/Jan/2022:16:31:04 +0530] "GET /BooksManagement/image/sybil.jpg HTTP/1.1" 404 790
0:0:0:0:0:0:0:1 - - [13/Jan/2022:16:31:04 +0530] "GET /BooksManagement/image/clarissa.jpg HTTP/1.1" 404 793
0:0:0:0:0:0:0:1 - - [13/Jan/2022:16:31:04 +0530] "GET /BooksManagement/css/style.css HTTP/1.1" 404 788
0:0:0:0:0:0:0:1 - - [13/Jan/2022:16:31:04 +0530] "GET /BooksManagement/image/richdadpoordad.jpg HTTP/1.1" 404 799
0:0:0:0:0:0:0:1 - - [13/Jan/2022:16:31:04 +0530] "GET /BooksManagement/image/aliceinwonderland.jpg HTTP/1.1" 404 802
0:0:0:0:0:0:0:1 - - [13/Jan/2022:16:31:04 +0530] "GET /BooksManagement/image/frankenstein.jpg HTTP/1.1" 404 797
0:0:0:0:0:0:0:1 - - [13/Jan/2022:16:31:04 +0530] "GET /BooksManagement/image/littlewomen.jpg HTTP/1.1" 404 796
0:0:0:0:0:0:0:1 - - [13/Jan/2022:16:31:05 +0530] "GET /favicon.ico HTTP/1.1" 404 762
0:0:0:0:0:0:0:1 - - [13/Jan/2022:16:33:19 +0530] "GET /BooksManagement/login.jsp HTTP/1.1" 200 420
0:0:0:0:0:0:0:1 - - [13/Jan/2022:16:33:29 +0530] "POST /BooksManagement/home.jsp HTTP/1.1" 200 5653
0:0:0:0:0:0:0:1 - - [13/Jan/2022:16:33:29 +0530] "GET /BooksManagement/image/clarissa.jpg HTTP/1.1" 404 793
0:0:0:0:0:0:0:1 - - [13/Jan/2022:16:33:29 +0530] "GET /BooksManagement/image/frankenstein.jpg HTTP/1.1" 404 797
0:0:0:0:0:0:0:1 - - [13/Jan/2022:16:33:29 +0530] "GET /BooksManagement/image/aliceinwonderland.jpg HTTP/1.1" 404 802
0:0:0:0:0:0:0:1 - - [13/Jan/2022:16:33:29 +0530] "GET /BooksManagement/image/richdadpoordad.jpg HTTP/1.1" 404 799
0:0:0:0:0:0:0:1 - - [13/Jan/2022:16:33:29 +0530] "GET /BooksManagement/image/sybil.jpg HTTP/1.1" 404 790
0:0:0:0:0:0:0:1 - - [13/Jan/2022:16:33:29 +0530] "GET /BooksManagement/image/littlewomen.jpg HTTP/1.1" 404 796
0:0:0:0:0:0:0:1 - - [13/Jan/2022:16:33:34 +0530] "GET /BooksManagement/like.jsp HTTP/1.1" 200 224
0:0:0:0:0:0:0:1 - - [13/Jan/2022:16:33:43 +0530] "GET /BooksManagement/logout.jsp HTTP/1.1" 200 6118
0:0:0:0:0:0:0:1 - - [13/Jan/2022:16:33:43 +0530] "GET /BooksManagement/css/style.css HTTP/1.1" 404 788
0:0:0:0:0:0:0:1 - - [13/Jan/2022:16:33:43 +0530] "GET /BooksManagement/image/frankenstein.jpg HTTP/1.1" 404 797
0:0:0:0:0:0:0:1 - - [13/Jan/2022:16:33:43 +0530] "GET /BooksManagement/image/clarissa.jpg HTTP/1.1" 404 793
0:0:0:0:0:0:0:1 - - [13/Jan/2022:16:33:43 +0530] "GET /BooksManagement/image/sybil.jpg HTTP/1.1" 404 790
0:0:0:0:0:0:0:1 - - [13/Jan/2022:16:33:43 +0530] "GET /BooksManagement/image/richdadpoordad.jpg HTTP/1.1" 404 799
0:0:0:0:0:0:0:1 - - [13/Jan/2022:16:33:43 +0530] "GET /BooksManagement/image/aliceinwonderland.jpg HTTP/1.1" 404 802
0:0:0:0:0:0:0:1 - - [13/Jan/2022:16:33:43 +0530] "GET /BooksManagement/image/littlewomen.jpg HTTP/1.1" 404 796
0:0:0:0:0:0:0:1 - - [13/Jan/2022:16:33:43 +0530] "GET /BooksManagement/css/style.css HTTP/1.1" 404 788
0:0:0:0:0:0:0:1 - - [13/Jan/2022:16:33:46 +0530] "GET /BooksManagement/registration.jsp HTTP/1.1" 200 497
0:0:0:0:0:0:0:1 - - [13/Jan/2022:16:42:22 +0530] "GET /BooksManagement/home.jsp HTTP/1.1" 200 5387
0:0:0:0:0:0:0:1 - - [13/Jan/2022:16:42:22 +0530] "GET /BooksManagement/image/sybil.jpg HTTP/1.1" 404 790
0:0:0:0:0:0:0:1 - - [13/Jan/2022:16:42:22 +0530] "GET /favicon.ico HTTP/1.1" 404 762
0:0:0:0:0:0:0:1 - - [13/Jan/2022:16:44:48 +0530] "GET /BooksManagement/ HTTP/1.1" 200 5941
0:0:0:0:0:0:0:1 - - [13/Jan/2022:16:44:48 +0530] "GET /BooksManagement/css/style.css HTTP/1.1" 404 788
0:0:0:0:0:0:0:1 - - [13/Jan/2022:16:44:48 +0530] "GET /BooksManagement/image/frankenstein.jpg HTTP/1.1" 404 797
0:0:0:0:0:0:0:1 - - [13/Jan/2022:16:44:48 +0530] "GET /BooksManagement/image/clarissa.jpg HTTP/1.1" 404 793
0:0:0:0:0:0:0:1 - - [13/Jan/2022:16:44:48 +0530] "GET /BooksManagement/image/sybil.jpg HTTP/1.1" 404 790
0:0:0:0:0:0:0:1 - - [13/Jan/2022:16:44:48 +0530] "GET /BooksManagement/image/aliceinwonderland.jpg HTTP/1.1" 404 802
0:0:0:0:0:0:0:1 - - [13/Jan/2022:16:44:48 +0530] "GET /BooksManagement/image/richdadpoordad.jpg HTTP/1.1" 404 799
0:0:0:0:0:0:0:1 - - [13/Jan/2022:16:44:48 +0530] "GET /BooksManagement/image/littlewomen.jpg HTTP/1.1" 404 796
0:0:0:0:0:0:0:1 - - [13/Jan/2022:16:44:49 +0530] "GET /favicon.ico HTTP/1.1" 404 762
0:0:0:0:0:0:0:1 - - [13/Jan/2022:16:45:07 +0530] "GET /BooksManagementSystems/ HTTP/1.1" 200 5941
0:0:0:0:0:0:0:1 - - [13/Jan/2022:16:45:07 +0530] "GET /BooksManagementSystems/image/clarissa.jpg HTTP/1.1" 404 800
0:0:0:0:0:0:0:1 - - [13/Jan/2022:16:45:07 +0530] "GET /BooksManagementSystems/css/style.css HTTP/1.1" 404 795
0:0:0:0:0:0:0:1 - - [13/Jan/2022:16:45:07 +0530] "GET /BooksManagementSystems/image/aliceinwonderland.jpg HTTP/1.1" 404 809
0:0:0:0:0:0:0:1 - - [13/Jan/2022:16:45:07 +0530] "GET /BooksManagementSystems/image/frankenstein.jpg HTTP/1.1" 404 804
0:0:0:0:0:0:0:1 - - [13/Jan/2022:16:45:07 +0530] "GET /BooksManagementSystems/image/sybil.jpg HTTP/1.1" 404 797
0:0:0:0:0:0:0:1 - - [13/Jan/2022:16:45:07 +0530] "GET /BooksManagementSystems/image/richdadpoordad.jpg HTTP/1.1" 404 806
0:0:0:0:0:0:0:1 - - [13/Jan/2022:16:45:07 +0530] "GET /BooksManagementSystems/image/littlewomen.jpg HTTP/1.1" 404 803
0:0:0:0:0:0:0:1 - - [13/Jan/2022:16:45:07 +0530] "GET /favicon.ico HTTP/1.1" 404 762
0:0:0:0:0:0:0:1 - - [13/Jan/2022:16:45:26 +0530] "GET /BooksManagement/home.jsp HTTP/1.1" 200 5387
0:0:0:0:0:0:0:1 - - [13/Jan/2022:16:45:26 +0530] "GET /BooksManagement/image/sybil.jpg HTTP/1.1" 404 790
0:0:0:0:0:0:0:1 - - [13/Jan/2022:16:45:26 +0530] "GET /favicon.ico HTTP/1.1" 404 762
0:0:0:0:0:0:0:1 - - [13/Jan/2022:16:45:53 +0530] "GET /BooksManagement/ HTTP/1.1" 200 5941
0:0:0:0:0:0:0:1 - - [13/Jan/2022:16:45:53 +0530] "GET /BooksManagement/css/style.css HTTP/1.1" 404 788
0:0:0:0:0:0:0:1 - - [13/Jan/2022:16:45:53 +0530] "GET /BooksManagement/image/clarissa.jpg HTTP/1.1" 404 793
0:0:0:0:0:0:0:1 - - [13/Jan/2022:16:45:53 +0530] "GET /BooksManagement/image/frankenstein.jpg HTTP/1.1" 404 797
0:0:0:0:0:0:0:1 - - [13/Jan/2022:16:45:53 +0530] "GET /BooksManagement/image/aliceinwonderland.jpg HTTP/1.1" 404 802
0:0:0:0:0:0:0:1 - - [13/Jan/2022:16:45:53 +0530] "GET /BooksManagement/image/richdadpoordad.jpg HTTP/1.1" 404 799
0:0:0:0:0:0:0:1 - - [13/Jan/2022:16:45:53 +0530] "GET /BooksManagement/image/sybil.jpg HTTP/1.1" 404 790
0:0:0:0:0:0:0:1 - - [13/Jan/2022:16:45:53 +0530] "GET /BooksManagement/image/littlewomen.jpg HTTP/1.1" 404 796
0:0:0:0:0:0:0:1 - - [13/Jan/2022:16:45:53 +0530] "GET /favicon.ico HTTP/1.1" 404 762
0:0:0:0:0:0:0:1 - - [13/Jan/2022:16:46:04 +0530] "GET /BooksManagement/readlater.jsp HTTP/1.1" 200 231
0:0:0:0:0:0:0:1 - - [13/Jan/2022:16:46:14 +0530] "GET /BooksManagement/like.jsp HTTP/1.1" 200 224
127.0.0.1 - - [13/Jan/2022:16:55:16 +0530] "GET / HTTP/1.1" 404 751
0:0:0:0:0:0:0:1 - - [13/Jan/2022:16:55:19 +0530] "GET /BooksManagement/ HTTP/1.1" 200 5941
0:0:0:0:0:0:0:1 - - [13/Jan/2022:16:55:19 +0530] "GET /BooksManagement/css/style.css HTTP/1.1" 404 788
0:0:0:0:0:0:0:1 - - [13/Jan/2022:16:55:19 +0530] "GET /BooksManagement/image/frankenstein.jpg HTTP/1.1" 200 15199
0:0:0:0:0:0:0:1 - - [13/Jan/2022:16:55:19 +0530] "GET /BooksManagement/image/aliceinwonderland.jpg HTTP/1.1" 200 11644
0:0:0:0:0:0:0:1 - - [13/Jan/2022:16:55:19 +0530] "GET /BooksManagement/image/sybil.jpg HTTP/1.1" 200 7189
0:0:0:0:0:0:0:1 - - [13/Jan/2022:16:55:19 +0530] "GET /BooksManagement/image/richdadpoordad.jpg HTTP/1.1" 200 14788
0:0:0:0:0:0:0:1 - - [13/Jan/2022:16:55:19 +0530] "GET /BooksManagement/image/clarissa.jpg HTTP/1.1" 200 5441
0:0:0:0:0:0:0:1 - - [13/Jan/2022:16:55:19 +0530] "GET /BooksManagement/image/littlewomen.jpg HTTP/1.1" 200 18060
0:0:0:0:0:0:0:1 - - [13/Jan/2022:16:55:19 +0530] "GET /favicon.ico HTTP/1.1" 404 762
0:0:0:0:0:0:0:1 - - [13/Jan/2022:16:55:45 +0530] "GET /BooksManagement/login.jsp HTTP/1.1" 200 420
0:0:0:0:0:0:0:1 - - [13/Jan/2022:16:57:48 +0530] "GET /BooksManagement/ HTTP/1.1" 200 5941
0:0:0:0:0:0:0:1 - - [13/Jan/2022:16:57:48 +0530] "GET /BooksManagement/css/style.css HTTP/1.1" 404 788
0:0:0:0:0:0:0:1 - - [13/Jan/2022:16:57:49 +0530] "GET /favicon.ico HTTP/1.1" 404 762
0:0:0:0:0:0:0:1 - - [13/Jan/2022:17:01:36 +0530] "GET /BooksManagement/ HTTP/1.1" 200 5941
0:0:0:0:0:0:0:1 - - [13/Jan/2022:17:01:36 +0530] "GET /BooksManagement/css/style.css HTTP/1.1" 404 788
0:0:0:0:0:0:0:1 - - [13/Jan/2022:17:01:53 +0530] "GET /BooksManagement/home.jsp HTTP/1.1" 200 5619
0:0:0:0:0:0:0:1 - - [13/Jan/2022:17:01:53 +0530] "GET /favicon.ico HTTP/1.1" 404 762
0:0:0:0:0:0:0:1 - - [13/Jan/2022:17:02:15 +0530] "GET /BooksManagement/ HTTP/1.1" 200 5941
0:0:0:0:0:0:0:1 - - [13/Jan/2022:17:02:15 +0530] "GET /BooksManagement/css/style.css HTTP/1.1" 404 788
0:0:0:0:0:0:0:1 - - [13/Jan/2022:17:02:15 +0530] "GET /favicon.ico HTTP/1.1" 404 762
0:0:0:0:0:0:0:1 - - [13/Jan/2022:17:04:14 +0530] "GET /BooksManagement/home.jsp HTTP/1.1" 200 5651
0:0:0:0:0:0:0:1 - - [13/Jan/2022:17:04:15 +0530] "GET /favicon.ico HTTP/1.1" 404 762
0:0:0:0:0:0:0:1 - - [13/Jan/2022:17:04:19 +0530] "GET /BooksManagement/logout.jsp HTTP/1.1" 200 6118
0:0:0:0:0:0:0:1 - - [13/Jan/2022:17:04:19 +0530] "GET /BooksManagement/css/style.css HTTP/1.1" 404 788
0:0:0:0:0:0:0:1 - - [13/Jan/2022:17:04:19 +0530] "GET /BooksManagement/css/style.css HTTP/1.1" 404 788
0:0:0:0:0:0:0:1 - - [13/Jan/2022:17:05:11 +0530] "GET /BooksManagement/home.jsp HTTP/1.1" 200 5656
0:0:0:0:0:0:0:1 - - [13/Jan/2022:17:05:11 +0530] "GET /favicon.ico HTTP/1.1" 404 762
0:0:0:0:0:0:0:1 - - [13/Jan/2022:17:05:55 +0530] "GET /BooksManagement/home.jsp HTTP/1.1" 200 5661
0:0:0:0:0:0:0:1 - - [13/Jan/2022:17:05:56 +0530] "GET /favicon.ico HTTP/1.1" 404 762
0:0:0:0:0:0:0:1 - - [13/Jan/2022:17:06:31 +0530] "GET /BooksManagement/home.jsp HTTP/1.1" 200 5660
0:0:0:0:0:0:0:1 - - [13/Jan/2022:17:07:28 +0530] "GET /BooksManagement/home.jsp HTTP/1.1" 200 5651
0:0:0:0:0:0:0:1 - - [13/Jan/2022:17:07:28 +0530] "GET /favicon.ico HTTP/1.1" 404 762
0:0:0:0:0:0:0:1 - - [13/Jan/2022:17:08:27 +0530] "GET /BooksManagement/home.jsp HTTP/1.1" 200 5651
0:0:0:0:0:0:0:1 - - [13/Jan/2022:17:08:39 +0530] "GET /BooksManagement/logout.jsp HTTP/1.1" 200 6118
0:0:0:0:0:0:0:1 - - [13/Jan/2022:17:08:39 +0530] "GET /BooksManagement/css/style.css HTTP/1.1" 404 788
0:0:0:0:0:0:0:1 - - [13/Jan/2022:17:08:39 +0530] "GET /BooksManagement/css/style.css HTTP/1.1" 404 788
0:0:0:0:0:0:0:1 - - [13/Jan/2022:17:10:52 +0530] "GET /BooksManagement/welcome.jsp HTTP/1.1" 200 5936
0:0:0:0:0:0:0:1 - - [13/Jan/2022:17:10:52 +0530] "GET /BooksManagement/css/style.css HTTP/1.1" 404 788
0:0:0:0:0:0:0:1 - - [13/Jan/2022:17:10:52 +0530] "GET /favicon.ico HTTP/1.1" 404 762
0:0:0:0:0:0:0:1 - - [13/Jan/2022:17:14:01 +0530] "GET /BooksManagement/ HTTP/1.1" 200 5936
0:0:0:0:0:0:0:1 - - [13/Jan/2022:17:14:01 +0530] "GET /BooksManagement/css/style.css HTTP/1.1" 404 788
0:0:0:0:0:0:0:1 - - [13/Jan/2022:17:14:02 +0530] "GET /favicon.ico HTTP/1.1" 404 762
0:0:0:0:0:0:0:1 - - [13/Jan/2022:17:14:58 +0530] "GET /BooksManagement/readlater.jsp HTTP/1.1" 200 222
0:0:0:0:0:0:0:1 - - [13/Jan/2022:17:15:10 +0530] "GET /BooksManagement/logout.jsp HTTP/1.1" 200 6102
0:0:0:0:0:0:0:1 - - [13/Jan/2022:17:15:10 +0530] "GET /BooksManagement/css/style.css HTTP/1.1" 404 788
0:0:0:0:0:0:0:1 - - [13/Jan/2022:17:15:10 +0530] "GET /BooksManagement/css/style.css HTTP/1.1" 404 788
