INDEX VERSION 1.131+C:\Users\DELL\Desktop\vijaybhaskarreddy_gontu_repository_hcl_training_week_7\week7 assignment\.metadata\.plugins\org.eclipse.jdt.core
3595365423.index
3278098923.index
2644000012.index
2788978882.index
3416927741.index
965644072.index
2612851707.index
644638226.index
1684246866.index
4172867322.index
2326224363.index
140329967.index
3110374539.index
1865797976.index
3743714430.index
1270996497.index
1275786704.index
2855782092.index
3445795760.index
3498790731.index
3021313678.index
2881613283.index
202111631.index
1784871740.index
1191385901.index
1856705036.index
42084095.index
773990095.index
368067529.index
2850890610.index
2347674812.index
1268239148.index
3701699132.index
2434235675.index
74120679.index
2094818265.index
1995328315.index
1725443467.index
4059296328.index
