<?xml version="1.0" encoding="UTF-8"?>
<session version="1.0">
<refactoring comment="Copy element &apos;image&apos; to &apos;webapp&apos;&#x0D;&#x0A;- Original project: &apos;Week7_Graded_Assignment&apos;&#x0D;&#x0A;- Destination element: &apos;webapp&apos;&#x0D;&#x0A;- Original element: &apos;image&apos;" description="Copy folder" element1="Week7_Graded_Assignment/WebContent/image" files="0" flags="589830" folders="1" id="org.eclipse.jdt.ui.copy" policy="org.eclipse.jdt.ui.copyResources" stamp="1642073054528" target="/BooksManagement/src/main/webapp" units="0" version="1.0"/>
</session>